%YAML 1.1
%TAG !u! tag:unity3d.com,2011:
--- !u!74 &7400000
AnimationClip:
  m_ObjectHideFlags: 0
  m_PrefabParentObject: {fileID: 0}
  m_PrefabInternal: {fileID: 0}
  m_Name: loading
  serializedVersion: 6
  m_Legacy: 0
  m_Compressed: 0
  m_UseHighQualityCurve: 1
  m_RotationCurves: []
  m_CompressedRotationCurves: []
  m_EulerCurves: []
  m_PositionCurves: []
  m_ScaleCurves: []
  m_FloatCurves: []
  m_PPtrCurves:
  - curve:
    - time: 0
      value: {fileID: 21300000, guid: 96972e9b3f2a07b4e91fe4d23e50865e, type: 3}
    - time: 0.083333336
      value: {fileID: 21300000, guid: c807bc6658a60ac4a91aa02b45b90b2c, type: 3}
    - time: 0.16666667
      value: {fileID: 21300000, guid: 81dee9f782d54ad4eae5dad08f7a69af, type: 3}
    - time: 0.25
      value: {fileID: 21300000, guid: 3092e9d8a2005d04cac426708fe03f9c, type: 3}
    - time: 0.33333334
      value: {fileID: 21300000, guid: 7f3296a45594d7c499e146be3ea2ec13, type: 3}
    - time: 0.41666666
      value: {fileID: 21300000, guid: 7bae189ae20925a459a4cff72b095eb9, type: 3}
    - time: 0.5
      value: {fileID: 21300000, guid: 4a8e454c548e32f4fa1006659a45598a, type: 3}
    - time: 0.5833333
      value: {fileID: 21300000, guid: 1023e10f7ae51a048ba389e6ff892e01, type: 3}
    - time: 0.6666667
      value: {fileID: 21300000, guid: 2176be04bb1e7204ab279ac717da15d1, type: 3}
    - time: 0.75
      value: {fileID: 21300000, guid: c39d238ec3eaff943bb611c2e0b8632b, type: 3}
    - time: 0.8333333
      value: {fileID: 21300000, guid: 90897cec773051642a10bee43703f1e4, type: 3}
    - time: 0.9166667
      value: {fileID: 21300000, guid: b4f956a97a6f53d49b3be3516ff1c69a, type: 3}
    - time: 1
      value: {fileID: 21300000, guid: adb2dac3be509894a94ce69c9f4d3139, type: 3}
    - time: 1.0833334
      value: {fileID: 21300000, guid: e459fc14d965a554984827fc8a6b9246, type: 3}
    - time: 1.1666666
      value: {fileID: 21300000, guid: c763f878690a97047aeedcf3138f140c, type: 3}
    - time: 1.25
      value: {fileID: 21300000, guid: 537d33e234e65584e86e49e7173d8780, type: 3}
    - time: 1.3333334
      value: {fileID: 21300000, guid: 0d2d043509c2b5f4e96ca6ac8356514a, type: 3}
    - time: 1.4166666
      value: {fileID: 21300000, guid: a9ba74a17b17e3841867d492708fd9f8, type: 3}
    - time: 1.5
      value: {fileID: 21300000, guid: 6908f037012e326428b4112876cbc471, type: 3}
    - time: 1.5833334
      value: {fileID: 21300000, guid: a5c1d1ff74e035d48af9c0c6bd90e4c2, type: 3}
    - time: 1.6666666
      value: {fileID: 21300000, guid: 7d04712b6fe77d2459a9e88ff72bae18, type: 3}
    - time: 1.75
      value: {fileID: 21300000, guid: 39bf2c983fd22e542a01ad3a5675ad0e, type: 3}
    - time: 1.8333334
      value: {fileID: 21300000, guid: 1f834c1196f31e44e92fded19ed486b1, type: 3}
    - time: 1.9166666
      value: {fileID: 21300000, guid: b3f9b003bef7e994695790607e5fa483, type: 3}
    - time: 2
      value: {fileID: 21300000, guid: f26db97871381b24289880f6f3c8f27b, type: 3}
    - time: 2.0833333
      value: {fileID: 21300000, guid: cd8cd67a0c148e141a4d1c0a90359aeb, type: 3}
    - time: 2.1666667
      value: {fileID: 21300000, guid: 49245d24b7738e642866890e30a8774d, type: 3}
    - time: 2.25
      value: {fileID: 21300000, guid: b5518c0087a82e04c9068c2622b03c30, type: 3}
    - time: 2.3333333
      value: {fileID: 21300000, guid: e56983fecc032af4ca1fcd2a91958024, type: 3}
    attribute: m_Sprite
    path: 
    classID: 114
    script: {fileID: -765806418, guid: f70555f144d8491a825f0804e09c671c, type: 3}
  m_SampleRate: 60
  m_WrapMode: 0
  m_Bounds:
    m_Center: {x: 0, y: 0, z: 0}
    m_Extent: {x: 0, y: 0, z: 0}
  m_ClipBindingConstant:
    genericBindings:
    - serializedVersion: 2
      path: 0
      attribute: 2015549526
      script: {fileID: -765806418, guid: f70555f144d8491a825f0804e09c671c, type: 3}
      typeID: 114
      customType: 0
      isPPtrCurve: 1
    pptrCurveMapping:
    - {fileID: 21300000, guid: 96972e9b3f2a07b4e91fe4d23e50865e, type: 3}
    - {fileID: 21300000, guid: c807bc6658a60ac4a91aa02b45b90b2c, type: 3}
    - {fileID: 21300000, guid: 81dee9f782d54ad4eae5dad08f7a69af, type: 3}
    - {fileID: 21300000, guid: 3092e9d8a2005d04cac426708fe03f9c, type: 3}
    - {fileID: 21300000, guid: 7f3296a45594d7c499e146be3ea2ec13, type: 3}
    - {fileID: 21300000, guid: 7bae189ae20925a459a4cff72b095eb9, type: 3}
    - {fileID: 21300000, guid: 4a8e454c548e32f4fa1006659a45598a, type: 3}
    - {fileID: 21300000, guid: 1023e10f7ae51a048ba389e6ff892e01, type: 3}
    - {fileID: 21300000, guid: 2176be04bb1e7204ab279ac717da15d1, type: 3}
    - {fileID: 21300000, guid: c39d238ec3eaff943bb611c2e0b8632b, type: 3}
    - {fileID: 21300000, guid: 90897cec773051642a10bee43703f1e4, type: 3}
    - {fileID: 21300000, guid: b4f956a97a6f53d49b3be3516ff1c69a, type: 3}
    - {fileID: 21300000, guid: adb2dac3be509894a94ce69c9f4d3139, type: 3}
    - {fileID: 21300000, guid: e459fc14d965a554984827fc8a6b9246, type: 3}
    - {fileID: 21300000, guid: c763f878690a97047aeedcf3138f140c, type: 3}
    - {fileID: 21300000, guid: 537d33e234e65584e86e49e7173d8780, type: 3}
    - {fileID: 21300000, guid: 0d2d043509c2b5f4e96ca6ac8356514a, type: 3}
    - {fileID: 21300000, guid: a9ba74a17b17e3841867d492708fd9f8, type: 3}
    - {fileID: 21300000, guid: 6908f037012e326428b4112876cbc471, type: 3}
    - {fileID: 21300000, guid: a5c1d1ff74e035d48af9c0c6bd90e4c2, type: 3}
    - {fileID: 21300000, guid: 7d04712b6fe77d2459a9e88ff72bae18, type: 3}
    - {fileID: 21300000, guid: 39bf2c983fd22e542a01ad3a5675ad0e, type: 3}
    - {fileID: 21300000, guid: 1f834c1196f31e44e92fded19ed486b1, type: 3}
    - {fileID: 21300000, guid: b3f9b003bef7e994695790607e5fa483, type: 3}
    - {fileID: 21300000, guid: f26db97871381b24289880f6f3c8f27b, type: 3}
    - {fileID: 21300000, guid: cd8cd67a0c148e141a4d1c0a90359aeb, type: 3}
    - {fileID: 21300000, guid: 49245d24b7738e642866890e30a8774d, type: 3}
    - {fileID: 21300000, guid: b5518c0087a82e04c9068c2622b03c30, type: 3}
    - {fileID: 21300000, guid: e56983fecc032af4ca1fcd2a91958024, type: 3}
  m_AnimationClipSettings:
    serializedVersion: 2
    m_AdditiveReferencePoseClip: {fileID: 0}
    m_AdditiveReferencePoseTime: 0
    m_StartTime: 0
    m_StopTime: 2.35
    m_OrientationOffsetY: 0
    m_Level: 0
    m_CycleOffset: 0
    m_HasAdditiveReferencePose: 0
    m_LoopTime: 1
    m_LoopBlend: 0
    m_LoopBlendOrientation: 0
    m_LoopBlendPositionY: 0
    m_LoopBlendPositionXZ: 0
    m_KeepOriginalOrientation: 0
    m_KeepOriginalPositionY: 1
    m_KeepOriginalPositionXZ: 0
    m_HeightFromFeet: 0
    m_Mirror: 0
  m_EditorCurves: []
  m_EulerEditorCurves: []
  m_HasGenericRootTransform: 0
  m_HasMotionFloatCurves: 0
  m_GenerateMotionCurves: 0
  m_Events: []
